Ref/Lab2_Haihan/Hardware/Simulation_Source/RF.vcd
$date
	Tue Oct 24 10:57:36 2023
$end
$version
	Icarus Verilog
$end
$timescale
	1ps
$end
$scope module RF_tb $end
$var wire 32 ! RD2 [31:0] $end
$var wire 32 " RD1 [31:0] $end
$var reg 4 # A1 [3:0] $end
$var reg 4 $ A2 [3:0] $end
$var reg 4 % A3 [3:0] $end
$var reg 32 & R15 [31:0] $end
$var reg 32 ' WD3 [31:0] $end
$var reg 1 ( WE3 $end
$var reg 1 ) clk $end
$scope module u_RegisterFile $end
$var wire 4 * A1 [3:0] $end
$var wire 4 + A2 [3:0] $end
$var wire 4 , A3 [3:0] $end
$var wire 1 ) CLK $end
$var wire 32 - R15 [31:0] $end
$var wire 32 . WD3 [31:0] $end
$var wire 1 ( WE3 $end
$var wire 32 / RD2 [31:0] $end
$var wire 32 0 RD1 [31:0] $end
$var reg 480 1 RegBank [479:0] $end
$upscope $end
$scope begin $ivl_for_loop0 $end
$var integer 32 2 i [31:0] $end
$upscope $end
$upscope $end
$enddefinitions $end
$comment Show the parameter values. $end
$dumpall
$end
#0
$dumpvars
b0 2
b0 1
b0 0
b0 /
b0 .
b0 -
b0 ,
b0 +
b0 *
1)
0(
b0 '
b0 &
b0 %
b0 $
b0 #
b0 "
b0 !
$end
#5000
0)
#10000
1)
#15000
0)
#20000
1)
#25000
0)
#30000
1)
#35000
0)
#40000
1)
#45000
0)
#50000
1)
b1 2
b1 %
b1 ,
1(
#55000
0)
#60000
b10001000000000000000000000000000000 1
1)
b10 2
b10 %
b10 ,
b10001 '
b10001 .
#65000
0)
#70000
b100010000000000010001000000000000000000000000000000 1
1)
b11 2
b11 %
b11 ,
b100010 '
b100010 .
#75000
0)
#80000
b110011000000000100010000000000010001000000000000000000000000000000 1
1)
b100 2
b100 %
b100 ,
b110011 '
b110011 .
#85000
0)
#90000
b1000100000000000110011000000000100010000000000010001000000000000000000000000000000 1
1)
b101 2
b101 %
b101 ,
b1000100 '
b1000100 .
#95000
0)
#100000
b1010101000000001000100000000000110011000000000100010000000000010001000000000000000000000000000000 1
1)
b110 2
b110 %
b110 ,
b1010101 '
b1010101 .
#105000
0)
#110000
b1100110000000001010101000000001000100000000000110011000000000100010000000000010001000000000000000000000000000000 1
1)
b111 2
b111 %
b111 ,
b1100110 '
b1100110 .
#115000
0)
#120000
b1110111000000001100110000000001010101000000001000100000000000110011000000000100010000000000010001000000000000000000000000000000 1
1)
b1000 2
b1000 %
b1000 ,
b1110111 '
b1110111 .
#125000
0)
#130000
b10001000000000001110111000000001100110000000001010101000000001000100000000000110011000000000100010000000000010001000000000000000000000000000000 1
1)
b1001 2
b1001 %
b1001 ,
b10001000 '
b10001000 .
#135000
0)
#140000
b10011001000000010001000000000001110111000000001100110000000001010101000000001000100000000000110011000000000100010000000000010001000000000000000000000000000000 1
1)
b1010 2
b1010 %
b1010 ,
b10011001 '
b10011001 .
#145000
0)
#150000
b10101010000000010011001000000010001000000000001110111000000001100110000000001010101000000001000100000000000110011000000000100010000000000010001000000000000000000000000000000 1
1)
b1011 2
b1011 %
b1011 ,
b10101010 '
b10101010 .
#155000
0)
#160000
b10111011000000010101010000000010011001000000010001000000000001110111000000001100110000000001010101000000001000100000000000110011000000000100010000000000010001000000000000000000000000000000 1
1)
b1100 2
b1100 %
b1100 ,
b10111011 '
b10111011 .
#165000
0)
#170000
b11001100000000010111011000000010101010000000010011001000000010001000000000001110111000000001100110000000001010101000000001000100000000000110011000000000100010000000000010001000000000000000000000000000000 1
1)
b1101 2
b1101 %
b1101 ,
b11001100 '
b11001100 .
#175000
0)
#180000
b11011101000000011001100000000010111011000000010101010000000010011001000000010001000000000001110111000000001100110000000001010101000000001000100000000000110011000000000100010000000000010001000000000000000000000000000000 1
1)
b1110 2
b1110 %
b1110 ,
b11011101 '
b11011101 .
#185000
0)
#190000
b11101110000000011011101000000011001100000000010111011000000010101010000000010011001000000010001000000000001110111000000001100110000000001010101000000001000100000000000110011000000000100010000000000010001000000000000000000000000000000 1
1)
b1111 2
b1111 %
b1111 ,
b11101110 '
b11101110 .
#195000
0)
#200000
1)
0(
#205000
0)
#210000
1)
#215000
0)
#220000
1)
#225000
0)
#230000
1)
#235000
0)
#240000
1)
#245000
0)
#250000
1)
#255000
0)
#260000
1)
#265000
0)
#270000
1)
#275000
0)
#280000
1)
#285000
0)
#290000
1)
#295000
0)
#300000
b110011 !
b110011 /
b10001 "
b10001 0
1)
b100 $
b100 +
b10 #
b10 *
#305000
0)
#310000
b100010 !
b100010 /
b0 "
b0 0
1)
b11 $
b11 +
b1111 #
b1111 *
